{
  "applications": ["cgdevacclerator"],
  "changelogDate": "20230122161457",
  "databaseType": "sql",
  "dto": "no",
  "embedded": false,
  "entityTableName": "customer",
  "fields": [
    {
      "fieldName": "firstName",
      "fieldType": "String"
    },
    {
      "fieldName": "lastName",
      "fieldType": "String"
    }
  ],
  "fluentMethods": true,
  "jpaMetamodelFiltering": false,
  "name": "Customer",
  "pagination": "pagination",
  "readOnly": false,
  "relationships": [
    {
      "otherEntityName": "policy",
      "otherEntityRelationshipName": "customer",
      "ownerSide": true,
      "relationshipName": "policy",
      "relationshipType": "one-to-one"
    },
    {
      "otherEntityName": "claim",
      "otherEntityRelationshipName": "customer",
      "ownerSide": true,
      "relationshipName": "claim",
      "relationshipType": "one-to-one"
    }
  ],
  "service": "serviceImpl"
}
